{
    "2019": {
        "America" : [
            ["Caption 1", "/static/img/2019/gallery1.jpeg", "America"],
            ["Caption 2", "/static/img/2019/gallery2.jpeg", "America"]
        ],
        "Mauritius" : [
            ["Caption 3", "/static/img/2019/gallery3.jpg", "Mauritius"],
            ["Caption 3", "/static/img/2019/gallery3.jpg", "Mauritius"]
        ],
        "UK" : [
            ["Caption 4", "/static/img/2019/gallery4.jpeg", "UK"], 
            ["Caption 4", "/static/img/2019/gallery4.jpeg", "UK"]
        ]
        },
    "2020": {
        "America" : [
            ["Caption 1", "/static/img/2020/gallery1.jpeg", "America"],
            ["Caption 4", "/static/img/2020/gallery4.jpeg", "America"]
        ],
        "Mauritius" : [
            ["Caption 3", "/static/img/2020/gallery3.jpg", "Mauritius"]
        ],
        "UK" : [
            ["Caption 2", "/static/img/2020/gallery2.jpeg", "UK"]
        ]
        
    },
    "2021": {
        "America": [
            ["Caption 1", "/static/img/2021/gallery1.jpeg", "America"],
            ["Caption 4", "/static/img/2021/gallery4.jpeg", "America"]
        ],
        "Mauritius": [
            ["Caption 3", "/static/img/2021/gallery3.jpg", "Mauritius"]
        ],
        "UK": [
            ["Caption 2", "/static/img/2021/gallery2.jpeg", "UK"]
        ]
    },
    "2022": {
        "America": [
            ["Caption 4", "/static/img/2022/gallery4.jpeg", "America"]
        ],
        "Mauritius": [
            ["Caption 3", "/static/img/2022/gallery3.jpg", "Mauritius"]
        ],
        "UK": [
            ["Caption 1", "/static/img/2022/gallery1.jpeg", "UK"],
            ["Caption 2", "/static/img/2022/gallery2.jpeg", "UK"]
        ]
    },
    "2023": {
        "America": [
            ["Caption 1", "/static/img/2023/gallery1.jpeg", "America"],
            ["Caption 4", "/static/img/2023/gallery4.jpeg", "America"],
            ["Caption 1", "/static/img/2023/gallery1.jpeg", "America"],
            ["Caption 4", "/static/img/2023/gallery4.jpeg", "America"],
            ["Caption 1", "/static/img/2023/gallery1.jpeg", "America"],
            ["Caption 4", "/static/img/2023/gallery4.jpeg", "America"]
        ],
        "Mauritius": [
            ["Caption 2", "/static/img/2023/gallery2.jpeg", "Mauritius"],
            ["Caption 2", "/static/img/2023/gallery2.jpeg", "Mauritius"]
        ],
        "UK": [
            ["Caption 3", "/static/img/2023/gallery3.jpg", "UK"]
        ]
    } 
}